Flask==0.10.1
Flask-RESTful==0.3.2
Flask-RESTful-extend==0.3.3
Flask-SQLAlchemy==2.0
Jinja2==2.7.3
MarkupSafe==0.23
PyMySQL==0.6.6
SQLAlchemy==0.9.9
Werkzeug==0.10.4
aniso8601==0.92
gunicorn==19.3.0
itsdangerous==0.24
pytz==2015.2
requests==2.6.0
six==1.9.0
wsgiref==0.1.2
